Manipulação de dados - dplyr
…
---

## Exibição vs. resumo de dados

.panelset[

.panel[.panel-name[Saída]

.pull-left[

```
## # A tibble: 87 x 3
##   name           height  mass
##   <chr>           <int> <dbl>
## 1 Luke Skywalker    172    77
## 2 C-3PO             167    75
## 3 R2-D2              96    32
## 4 Darth Vader       202   136
## 5 Leia Organa       150    49
## 6 Owen Lars         178   120
## # ... with 81 more rows
```
…
---

## Selecione uma única coluna

Ver apenas `lead_time` (número de dias entre a reserva e a data de chegada):

```r
select(hotels, lead_time)
```

```
## # A tibble: 119,390 x 1
##   lead_time
##       <dbl>
## 1       342
## 2       737
## 3         7
## 4        13
## 5        14
## 6        14
## # ... with 119,384 more rows
```
…
---

## Selecione uma única coluna

.pull-left[

```r
select( 
  hotels, 
  lead_time
  )
```

```
## # A tibble: 119,390 x 1
##   lead_time
##       <dbl>
## 1       342
## 2       737
## 3         7
## 4        13
## 5        14
## 6        14
## # ... with 119,384 more rows
```
…
---

.tip[
dplyr funções precisam de um data frame como entrada e entregam um data frame.
]

```r
select(hotels, lead_time)
```

```
## # A tibble: 119,390 x 1
##   lead_time
##       <dbl>
## 1       342
## 2       737
## 3         7
## 4        13
## 5        14
## 6        14
## # ... with 119,384 more rows
```
…
## Selecione várias colunas

Veja apenas o tipo de `hotel` e o `lead_time`:

--

.pull-left[

```r
select(hotels, hotel, lead_time)
```

```
## # A tibble: 119,390 x 2
##   hotel        lead_time
##   <chr>            <dbl>
## 1 Resort Hotel       342
## 2 Resort Hotel       737
## 3 Resort Hotel         7
## 4 Resort Hotel        13
## 5 Resort Hotel        14
## 6 Resort Hotel        14
## # ... with 119,384 more rows
```
…
---

## Data wrangling, passo-a-passo

.pull-left[
Selecione:

```r
hotels %>%
  select(hotel, lead_time)
```

```
## # A tibble: 119,390 x 2
##   hotel        lead_time
##   <chr>            <dbl>
## 1 Resort Hotel       342
## 2 Resort Hotel       737
## 3 Resort Hotel         7
## 4 Resort Hotel        13
## 5 Resort Hotel        14
## 6 Resort Hotel        14
## # ... with 119,384 more rows
```
]

--
.pull-right[
Selecione, depois organize:

```r
hotels %>%
  select(hotel, lead_time) %>%
  arrange(desc(lead_time))
```

```
## # A tibble: 119,390 x 2
##   hotel        lead_time
##   <chr>            <dbl>
## 1 Resort Hotel       737
## 2 Resort Hotel       709
## 3 City Hotel         629
## 4 City Hotel         629
## 5 City Hotel         629
## 6 City Hotel         629
## # ... with 119,384 more rows
```
…
.pull-left[
- Comece com o dataframe `hotels`, e utilize a função `select()`,
]
.pull-right[
.small[

```r
*hotels %>%
  select(hotel, lead_time) %>%
  arrange(desc(lead_time))
```

```
## # A tibble: 119,390 x 2
##   hotel        lead_time
##   <chr>            <dbl>
## 1 Resort Hotel       737
## 2 Resort Hotel       709
## 3 City Hotel         629
## 4 City Hotel         629
## 5 City Hotel         629
## 6 City Hotel         629
## # ... with 119,384 more rows
```
…
.pull-left[
- Comece com o dataframe `hotels`, e utilize a função `select()`,
- e então, selecione `hotel` and `lead_time`,
]
.pull-right[
.small[

```r
hotels %>%
* select(hotel, lead_time) %>%
  arrange(desc(lead_time))
```

```
## # A tibble: 119,390 x 2
##   hotel        lead_time
##   <chr>            <dbl>
## 1 Resort Hotel       737
## 2 Resort Hotel       709
## 3 City Hotel         629
## 4 City Hotel         629
## 5 City Hotel         629
## 6 City Hotel         629
## # ... with 119,384 more rows
```
…
```r
hotels %>%
  select(hotel, lead_time) %>% 
* arrange(desc(lead_time))
```

```
## # A tibble: 119,390 x 2
##   hotel        lead_time
##   <chr>            <dbl>
## 1 Resort Hotel       737
## 2 Resort Hotel       709
## 3 City Hotel         629
## 4 City Hotel         629
## 5 City Hotel         629
## 6 City Hotel         629
## # ... with 119,384 more rows
```
…
